\relax 
\@writefile{toc}{\contentsline {section}{\numberline {1}Introduction}{1}\protected@file@percent }
\@writefile{toc}{\contentsline {section}{\numberline {2}Single-layer graphene}{1}\protected@file@percent }
\@writefile{toc}{\contentsline {section}{\numberline {3}Single-layer graphene in the Dirac-cone approximation}{1}\protected@file@percent }
\@writefile{toc}{\contentsline {section}{\numberline {4}A one-dimensional graphene superlattice}{1}\protected@file@percent }
\@writefile{toc}{\contentsline {section}{\numberline {5}Conclusions and future development}{1}\protected@file@percent }
