\relax 
\providecommand\hyper@newdestlabel[2]{}
\providecommand\HyperFirstAtBeginDocument{\AtBeginDocument}
\HyperFirstAtBeginDocument{\ifx\hyper@anchor\@undefined
\global\let\oldcontentsline\contentsline
\gdef\contentsline#1#2#3#4{\oldcontentsline{#1}{#2}{#3}}
\global\let\oldnewlabel\newlabel
\gdef\newlabel#1#2{\newlabelxx{#1}#2}
\gdef\newlabelxx#1#2#3#4#5#6{\oldnewlabel{#1}{{#2}{#3}}}
\AtEndDocument{\ifx\hyper@anchor\@undefined
\let\contentsline\oldcontentsline
\let\newlabel\oldnewlabel
\fi}
\fi}
\global\let\hyper@last\relax 
\gdef\HyperFirstAtBeginDocument#1{#1}
\providecommand\HyField@AuxAddToFields[1]{}
\providecommand\HyField@AuxAddToCoFields[2]{}
\newlabel{FirstPage}{{}{1}{}{Doc-Start}{}}
\@writefile{toc}{\contentsline {title}{Notes on the use of symmetry to calculate linear response functions}{1}{section*.1}\protected@file@percent }
\@writefile{toc}{\contentsline {section}{\numberline {I}Symmetry of wavefunctions}{1}{section*.2}\protected@file@percent }
\newlabel{sect:wavefunctions}{{I}{1}{}{section*.2}{}}
\@writefile{toc}{\contentsline {section}{\numberline {II}Integration}{1}{section*.3}\protected@file@percent }
\@writefile{toc}{\contentsline {section}{\numberline {III}Symmetry operations}{1}{section*.4}\protected@file@percent }
\newlabel{sect:operations}{{III}{1}{}{section*.4}{}}
\@writefile{toc}{\contentsline {subsection}{\numberline {A}symmetry D6}{1}{section*.5}\protected@file@percent }
\bibdata{notes_symmetryNotes}
\bibstyle{apsrev4-1}
\citation{REVTEX41Control}
\citation{apsrev41Control}
\@writefile{toc}{\contentsline {subsection}{\numberline {B}symmetry D3}{2}{section*.6}\protected@file@percent }
\newlabel{LastPage}{{}{2}{}{}{}}
